{
	"_id": "5d8bbaa4c82fdf001125a382",
	"type": "object",
	"time": 1569438372808,
	"id": "5a718f4543af42110079e8a4",
	"body": {
		"text": "It's too dark",
		"type": "text"
	},
	"importance": "information",
	"read": false
}